{
  "results": [
    {
      "response": "yes",
      "member": {
        "name": "Bob Matthews",
        "member_id": 1340019
      },
      "created": 1420794985000,
      "event": {
        "id": "190193091",
        "time": 1420846200000,
        "event_url": "http:\/\/www.meetup.com\/example-group\/events\/190193091\/",
        "name": "Example Event"
      },
      "tallies": {
        "yes": 104,
        "maybe": 0,
        "no": 39,
        "waitlist": 0
      },
      "mtime": 1420831144000,
      "answers": [
        {
          "updated": 1420042915000,
          "answer": "Expert",
          "question": "Please rate your skill level.",
          "question_id": 22134618
        }
      ],
      "guests": 0,
      "rsvp_id": 156090112,
      "venue": {
        "id": 23546199,
        "lon": -71.087105,
        "repinned": true,
        "name": "Example Event",
        "state": "MA",
        "address_1": "100 Main St.",
        "lat": 42.362682,
        "city": "Anytown",
        "country": "us"
      },
      "group": {
        "id": 1757913,
        "created": 1421717180559,
        "group_lat": 42.380001068115,
        "group_lon": -71.129997253418,
        "join_mode": "open",
        "urlname": "example-group"
      }
    },
    {
      "member": {
        "name": "Richard Smith",
        "member_id": 1340096
      },
      "tallies": {
        "yes": 104,
        "maybe": 0,
        "no": 39,
        "waitlist": 0
      },
      "mtime": 1420842884000,
      "answers": [
        {
          "question": "Please rate your skill level.",
          "question_id": 22134618
        }
      ],
      "guests": 0,
      "venue": {
        "id": 23546199,
        "lon": 0,
        "repinned": false,
        "name": "Example Event",
        "state": "MA",
        "address_1": "100 Main St.",
        "lat": 0,
        "city": "Anytown",
        "country": "us"
      },
      "response": "no",
      "member_photo": {
        "photo_link": "http://example.com/image/example123.jpeg",
        "highres_link": "http://example.com/image/example123_highres.jpeg",
        "thumb_link": "http://example.com/image/example123_thumb.jpeg",
        "photo_id": 200089372
      },
      "created": 1420504240000,
      "event": {
        "id": "190193091",
        "time": 1420846200000,
        "event_url": "http:\/\/www.meetup.com\/example-group\/events\/190193091\/",
        "name": "Example Event"
      },
      "rsvp_id": 156090196,
      "group": {
        "id": 1757913,
        "created": 1421717180559,
        "group_lat": 42.380001068115,
        "group_lon": -71.129997253418,
        "join_mode": "open",
        "urlname": "example-group"
      }
    },
    {
      "member": {
        "name": "John Douglas",
        "member_id": 1340085
      },
      "tallies": {
        "yes": 104,
        "maybe": 0,
        "no": 39,
        "waitlist": 0
      },
      "mtime": 1420687850000,
      "answers": [
        {
          "updated": 1420042915000,
          "answer": "Beginner",
          "question": "Please rate your skill level.",
          "question_id": 22134618
        }
      ],
      "guests": 0,
      "venue": {
        "id": 23546199,
        "lon": 0,
        "repinned": false,
        "name": "Example Event",
        "state": "MA",
        "address_1": "100 Main St.",
        "lat": 0,
        "city": "Anytown",
        "country": "us"
      },
      "response": "yes",
      "member_photo": {
        "photo_link": "http://example.com/image/example123.jpeg",
        "thumb_link": "http://example.com/image/example123_thumb.jpeg",
        "photo_id": 21702971
      },
      "created": 1420687850000,
      "event": {
        "id": "190193091",
        "time": 1420846200000,
        "event_url": "http:\/\/www.meetup.com\/example-group\/events\/190193091\/",
        "name": "Example Event"
      },
      "rsvp_id": 156090120,
      "group": {
        "id": 1757913,
        "created": 1421717180559,
        "group_lat": 42.380001068115,
        "group_lon": -71.129997253418,
        "join_mode": "open",
        "urlname": "example-group"
      }
    },
    {
      "member": {
        "name": "Harriet Jenning",
        "member_id": 1340086
      },
      "tallies": {
        "yes": 104,
        "maybe": 0,
        "no": 39,
        "waitlist": 0
      },
      "mtime": 1420651101000,
      "answers": [
        {
          "question": "Please rate your skill level.",
          "question_id": 22134618
        }
      ],
      "guests": 0,
      "venue": {
        "id": 23546199,
        "lon": 0,
        "repinned": false,
        "name": "Example Event",
        "state": "MA",
        "address_1": "100 Main St.",
        "lat": 0,
        "city": "Anytown",
        "country": "us"
      },
      "response": "yes",
      "member_photo": {
        "photo_link": "http://example.com/image/example123.jpeg",
        "highres_link": "http://example.com/image/example123_highres.jpeg",
        "thumb_link": "http://example.com/image/example123_thumb.jpeg",
        "photo_id": 242700174
      },
      "created": 1420651101000,
      "event": {
        "id": "190193091",
        "time": 1420846200000,
        "event_url": "http:\/\/www.meetup.com\/example-group\/events\/190193091\/",
        "name": "Example Event"
      },
      "rsvp_id": 156090186,
      "group": {
        "id": 1757913,
        "created": 1421717180559,
        "group_lat": 42.380001068115,
        "group_lon": -71.129997253418,
        "join_mode": "open",
        "urlname": "example-group"
      }
    },
    {
      "member": {
        "name": "Norman Schwartz",
        "member_id": 1340028
      },
      "tallies": {
        "yes": 104,
        "maybe": 0,
        "no": 39,
        "waitlist": 0
      },
      "mtime": 1420838992000,
      "answers": [
        {
          "question": "Please rate your skill level.",
          "question_id": 22134618
        }
      ],
      "guests": 0,
      "venue": {
        "id": 23546199,
        "lon": 0,
        "repinned": false,
        "name": "Example Event",
        "state": "MA",
        "address_1": "100 Main St.",
        "lat": 0,
        "city": "Anytown",
        "country": "us"
      },
      "response": "no",
      "member_photo": {
        "photo_link": "http://example.com/image/example123.jpeg",
        "highres_link": "http://example.com/image/example123_highres.jpeg",
        "thumb_link": "http://example.com/image/example123_thumb.jpeg",
        "photo_id": 228921152
      },
      "created": 1420363027000,
      "event": {
        "id": "190193091",
        "time": 1420846200000,
        "event_url": "http:\/\/www.meetup.com\/example-group\/events\/190193091\/",
        "name": "Example Event"
      },
      "rsvp_id": 156090139,
      "group": {
        "id": 1757913,
        "created": 1421717180559,
        "group_lat": 42.380001068115,
        "group_lon": -71.129997253418,
        "join_mode": "open",
        "urlname": "example-group"
      }
    }
  ],
  "meta": {
    "lon": "",
    "count": 5,
    "signed_url": "http:\/\/api.meetup.com\/2\/rsvps?event_id=190193091&order=event&desc=false&offset=0&photo-host=public&format=json&page=5&fields=&sig_id=3426&sig=18374616162",
    "link": "https:\/\/api.meetup.com\/2\/rsvps",
    "next": "https:\/\/api.meetup.com\/2\/rsvps?event_id=190193091&order=event&desc=false&offset=1&photo-host=public&format=json&page=5&fields=&sign=True",
    "total_count": 144,
    "url": "https:\/\/api.meetup.com\/2\/rsvps?event_id=190193091&order=event&desc=false&offset=0&photo-host=public&format=json&page=5&fields=&sign=True",
    "id": "",
    "title": "Meetup RSVPs v2",
    "updated": 1420912275000,
    "description": "Query for Event RSVPs by event",
    "method": "RSVPs v2",
    "lat": ""
  }
}
